io/spring/core/comment/CommentRepository.class
io/spring/core/favorite/ArticleFavorite.class
io/spring/core/user/EncryptService.class
io/spring/core/user/FollowRelation.class
io/spring/core/favorite/ArticleFavoriteRepository.class
io/spring/core/article/Article.class
io/spring/core/service/AuthorizationService.class
io/spring/core/article/ArticleRepository.class
io/spring/core/article/Tag.class
io/spring/core/user/UserRepository.class
io/spring/core/service/JwtService.class
io/spring/core/comment/Comment.class
io/spring/core/user/User.class
